{
    "/js/app.js": "/js/app.js?id=a17c514c9a19d134fd70",
    "/js/boot.js": "/js/boot.js?id=8173a9f34ab2986907e2",
    "/css/bootstrap.css": "/css/bootstrap.css?id=51e263295e41ea76babf",
    "/css/vue-select.css": "/css/vue-select.css?id=ed5032fcbb7f77fe4805",
    "/css/toastr.css": "/css/toastr.css?id=64c617621c5219382371",
    "/css/sidebar.css": "/css/sidebar.css?id=c390484363d55e80acaa",
    "/css/responsive-tables.css": "/css/responsive-tables.css?id=456b6706e1acf07ba881",
    "/js/manifest.js": "/js/manifest.js?id=41f053ba9a94d81b39f8",
    "/js/vendor.js": "/js/vendor.js?id=f7cd2d00c10f7b30b38c"
}
